{
  "socketURL": "/",
  "dirPath": "",
  "homePage": "",
  "socketMessageEvent": "RTCMultiConnection-Message",
  "socketCustomEvent": "RTCMultiConnection-Custom-Message",
  "port": "4000",
  "enableLogs": "false",
  "autoRebootServerOnFailure": "false",
  "isUseHTTPs": "true",
  "sslKey": "certs/localhost-key.pem",
  "sslCert": "certs/localhost.pem",
  "sslCabundle": "",
  "enableAdmin": "true",
  "adminUserName": "username",
  "adminPassword": "password"
}
